{
  "id": "75bf39d1-75de-0e2d-2fe9-74ac09a686e5",
  "name": "Production",
  "values": [
    {
      "enabled": true,
      "key": "baseUrl",
      "value": "http://carsapi-env.eba-puzvq6z2.us-east-1.elasticbeanstalk.com/",
      "type": "text"
    }
  ],
  "timestamp": 1587241431044,
  "_postman_variable_scope": "environment",
  "_postman_exported_at": "2020-05-01T11:57:31.784Z",
  "_postman_exported_using": "Postman/5.5.3"
}